{"actions":[{"id":"1;a","state":"SUCCESS","returnValue":{"currentPageUrl":"/services/data/v66.0/ssot/data-lake-objects?limit=5&offset=0&orderBy=label","dataLakeObjects":[{"capabilities":{},"category":"Other","createdDate":"2026-03-30T21:53:52.000Z","dataLakeFieldInfoRepresentation":[{"dataType":"Text","isPrimaryKey":false,"label":"KQ_se_id","name":"KQ_se_id__c"},{"dataType":"Boolean","isPrimaryKey":false,"label":"travel_flag","name":"travel_flag__c"},{"dataType":"Number","isPrimaryKey":false,"label":"technical_touchpoints","name":"technical_touchpoints__c"},{"dataType":"Number","isPrimaryKey":false,"label":"is_billable_equivalent","name":"is_billable_equivalent__c"},{"dataType":"Text","isPrimaryKey":false,"label":"Data Source Object","name":"DataSourceObject__c"},{"dataType":"Boolean","isPrimaryKey":false,"label":"after_hours_flag","name":"after_hours_flag__c"},{"dataType":"Text","isPrimaryKey":false,"label":"manager_id","name":"manager_id__c"},{"dataType":"Text","isPrimaryKey":true,"label":"se_id","name":"se_id__c"},{"dataType":"Text","isPrimaryKey":false,"label":"support_ticket_id","name":"support_ticket_id__c"},{"dataType":"Boolean","isPrimaryKey":false,"label":"manager_feedback_flag","name":"manager_feedback_flag__c"},{"dataType":"Boolean","isPrimaryKey":false,"label":"is_quarter_end_week","name":"is_quarter_end_week__c"},{"dataType":"Text","isPrimaryKey":false,"label":"activity_id","name":"activity_id__c"},{"dataType":"Text","isPrimaryKey":false,"label":"customer_satisfaction_sentiment","name":"customer_satisfaction_sentiment__c"},{"dataType":"Text","isPrimaryKey":false,"label":"opportunity_id","name":"opportunity_id__c"},{"dataType":"Text","isPrimaryKey":false,"label":"activity_subject","name":"activity_subject__c"},{"dataType":"Text","isPrimaryKey":false,"label":"logging_category","name":"logging_category__c"},{"dataType":"Text","isPrimaryKey":false,"label":"opportunity_type","name":"opportunity_type__c"},{"dataType":"Number","isPrimaryKey":false,"label":"se_reported_influence_pct","name":"se_reported_influence_pct__c"},{"dataType":"Number","isPrimaryKey":false,"label":"deal_value_usd","name":"deal_value_usd__c"},{"dataType":"Number","isPrimaryKey":false,"label":"prep_followup_hours","name":"prep_followup_hours__c"},{"dataType":"Text","isPrimaryKey":false,"label":"account_id","name":"account_id__c"},{"dataType":"Text","isPrimaryKey":false,"label":"region","name":"region__c"},{"dataType":"Text","isPrimaryKey":false,"label":"account_maturity","name":"account_maturity__c"},{"dataType":"Boolean","isPrimaryKey":false,"label":"notes_flagged_for_followup","name":"notes_flagged_for_followup__c"},{"dataType":"Text","isPrimaryKey":false,"label":"account_tier","name":"account_tier__c"},{"dataType":"Text","isPrimaryKey":false,"label":"se_name_alias","name":"se_name_alias__c"},{"dataType":"Text","isPrimaryKey":false,"label":"role_archetype","name":"role_archetype__c"},{"dataType":"Text","isPrimaryKey":false,"label":"Internal Organization","name":"InternalOrganization__c"},{"dataType":"Number","isPrimaryKey":false,"label":"value_influenced_per_hour_usd","name":"value_influenced_per_hour_usd__c"},{"dataType":"Text","isPrimaryKey":false,"label":"industry","name":"industry__c"},{"dataType":"Number","isPrimaryKey":false,"label":"conversion_touchpoint_ratio","name":"conversion_touchpoint_ratio__c"},{"dataType":"Text","isPrimaryKey":false,"label":"account_name","name":"account_name__c"},{"dataType":"Number","isPrimaryKey":false,"label":"se_tenure_months","name":"se_tenure_months__c"},{"dataType":"Text","isPrimaryKey":false,"label":"opportunity_name","name":"opportunity_name__c"},{"dataType":"Text","isPrimaryKey":false,"label":"team","name":"team__c"},{"dataType":"Text","isPrimaryKey":false,"label":"Data Source","name":"DataSource__c"},{"dataType":"Number","isPrimaryKey":false,"label":"followup_action_count","name":"followup_action_count__c"},{"dataType":"Text","isPrimaryKey":false,"label":"outcome_flag","name":"outcome_flag__c"},{"dataType":"Boolean","isPrimaryKey":false,"label":"is_internal_only","name":"is_internal_only__c"},{"dataType":"Number","isPrimaryKey":false,"label":"monthly_se_target_hours","name":"monthly_se_target_hours__c"},{"dataType":"Text","isPrimaryKey":false,"label":"se_level","name":"se_level__c"},{"dataType":"Number","isPrimaryKey":false,"label":"hours_logged","name":"hours_logged__c"},{"dataType":"Text","isPrimaryKey":false,"label":"account_support_intensity","name":"account_support_intensity__c"},{"dataType":"Text","isPrimaryKey":false,"label":"activity_type","name":"activity_type__c"},{"dataType":"Number","isPrimaryKey":false,"label":"week_of_year","name":"week_of_year__c"},{"dataType":"DateTime","isPrimaryKey":false,"label":"logged_timestamp","name":"logged_timestamp__c"},{"dataType":"Number","isPrimaryKey":false,"label":"logging_lag_days","name":"logging_lag_days__c"},{"dataType":"Date","isPrimaryKey":false,"label":"activity_date","name":"activity_date__c"},{"dataType":"Text","isPrimaryKey":false,"label":"opp_stage","name":"opp_stage__c"},{"dataType":"Text","isPrimaryKey":false,"label":"cdp_sys_SourceVersion","name":"cdp_sys_SourceVersion__c"}],"dataSpaceInfo":[{"label":"default","name":"default"}],"fields":[{"dataType":"Text","isPrimaryKey":false,"label":"KQ_se_id","name":"KQ_se_id__c"},{"dataType":"Boolean","isPrimaryKey":false,"label":"travel_flag","name":"travel_flag__c"},{"dataType":"Number","isPrimaryKey":false,"label":"technical_touchpoints","name":"technical_touchpoints__c"},{"dataType":"Number","isPrimaryKey":false,"label":"is_billable_equivalent","name":"is_billable_equivalent__c"},{"dataType":"Text","isPrimaryKey":false,"label":"Data Source Object","name":"DataSourceObject__c"},{"dataType":"Boolean","isPrimaryKey":false,"label":"after_hours_flag","name":"after_hours_flag__c"},{"dataType":"Text","isPrimaryKey":false,"label":"manager_id","name":"manager_id__c"},{"dataType":"Text","isPrimaryKey":true,"label":"se_id","name":"se_id__c"},{"dataType":"Text","isPrimaryKey":false,"label":"support_ticket_id","name":"support_ticket_id__c"},{"dataType":"Boolean","isPrimaryKey":false,"label":"manager_feedback_flag","name":"manager_feedback_flag__c"},{"dataType":"Boolean","isPrimaryKey":false,"label":"is_quarter_end_week","name":"is_quarter_end_week__c"},{"dataType":"Text","isPrimaryKey":false,"label":"activity_id","name":"activity_id__c"},{"dataType":"Text","isPrimaryKey":false,"label":"customer_satisfaction_sentiment","name":"customer_satisfaction_sentiment__c"},{"dataType":"Text","isPrimaryKey":false,"label":"opportunity_id","name":"opportunity_id__c"},{"dataType":"Text","isPrimaryKey":false,"label":"activity_subject","name":"activity_subject__c"},{"dataType":"Text","isPrimaryKey":false,"label":"logging_category","name":"logging_category__c"},{"dataType":"Text","isPrimaryKey":false,"label":"opportunity_type","name":"opportunity_type__c"},{"dataType":"Number","isPrimaryKey":false,"label":"se_reported_influence_pct","name":"se_reported_influence_pct__c"},{"dataType":"Number","isPrimaryKey":false,"label":"deal_value_usd","name":"deal_value_usd__c"},{"dataType":"Number","isPrimaryKey":false,"label":"prep_followup_hours","name":"prep_followup_hours__c"},{"dataType":"Text","isPrimaryKey":false,"label":"account_id","name":"account_id__c"},{"dataType":"Text","isPrimaryKey":false,"label":"region","name":"region__c"},{"dataType":"Text","isPrimaryKey":false,"label":"account_maturity","name":"account_maturity__c"},{"dataType":"Boolean","isPrimaryKey":false,"label":"notes_flagged_for_followup","name":"notes_flagged_for_followup__c"},{"dataType":"Text","isPrimaryKey":false,"label":"account_tier","name":"account_tier__c"},{"dataType":"Text","isPrimaryKey":false,"label":"se_name_alias","name":"se_name_alias__c"},{"dataType":"Text","isPrimaryKey":false,"label":"role_archetype","name":"role_archetype__c"},{"dataType":"Text","isPrimaryKey":false,"label":"Internal Organization","name":"InternalOrganization__c"},{"dataType":"Number","isPrimaryKey":false,"label":"value_influenced_per_hour_usd","name":"value_influenced_per_hour_usd__c"},{"dataType":"Text","isPrimaryKey":false,"label":"industry","name":"industry__c"},{"dataType":"Number","isPrimaryKey":false,"label":"conversion_touchpoint_ratio","name":"conversion_touchpoint_ratio__c"},{"dataType":"Text","isPrimaryKey":false,"label":"account_name","name":"account_name__c"},{"dataType":"Number","isPrimaryKey":false,"label":"se_tenure_months","name":"se_tenure_months__c"},{"dataType":"Text","isPrimaryKey":false,"label":"opportunity_name","name":"opportunity_name__c"},{"dataType":"Text","isPrimaryKey":false,"label":"team","name":"team__c"},{"dataType":"Text","isPrimaryKey":false,"label":"Data Source","name":"DataSource__c"},{"dataType":"Number","isPrimaryKey":false,"label":"followup_action_count","name":"followup_action_count__c"},{"dataType":"Text","isPrimaryKey":false,"label":"outcome_flag","name":"outcome_flag__c"},{"dataType":"Boolean","isPrimaryKey":false,"label":"is_internal_only","name":"is_internal_only__c"},{"dataType":"Number","isPrimaryKey":false,"label":"monthly_se_target_hours","name":"monthly_se_target_hours__c"},{"dataType":"Text","isPrimaryKey":false,"label":"se_level","name":"se_level__c"},{"dataType":"Number","isPrimaryKey":false,"label":"hours_logged","name":"hours_logged__c"},{"dataType":"Text","isPrimaryKey":false,"label":"account_support_intensity","name":"account_support_intensity__c"},{"dataType":"Text","isPrimaryKey":false,"label":"activity_type","name":"activity_type__c"},{"dataType":"Number","isPrimaryKey":false,"label":"week_of_year","name":"week_of_year__c"},{"dataType":"DateTime","isPrimaryKey":false,"label":"logged_timestamp","name":"logged_timestamp__c"},{"dataType":"Number","isPrimaryKey":false,"label":"logging_lag_days","name":"logging_lag_days__c"},{"dataType":"Date","isPrimaryKey":false,"label":"activity_date","name":"activity_date__c"},{"dataType":"Text","isPrimaryKey":false,"label":"opp_stage","name":"opp_stage__c"},{"dataType":"Text","isPrimaryKey":false,"label":"cdp_sys_SourceVersion","name":"cdp_sys_SourceVersion__c"}],"id":"1dlKZ000000Y5SfYAK","label":"se_activity_flat.csv (1).csv","lastRefreshedDate":"2026-03-30T21:54:05.000Z","name":"se_activity_flatcsv_1csv__dll","namespace":"","status":"ACTIVE","totalRecords":255120},{"capabilities":{},"category":"Profile","createdDate":"2025-10-25T03:43:28.000Z","dataLakeFieldInfoRepresentation":[{"dataType":"Text","isPrimaryKey":false,"label":"KQ_Id","name":"KQ_Id__c"},{"dataType":"Text","isPrimaryKey":false,"label":"Street","name":"Street__c"},{"dataType":"Text","isPrimaryKey":false,"label":"EndDay","name":"EndDay__c"},{"dataType":"Text","isPrimaryKey":false,"label":"City","name":"City__c"},{"dataType":"Text","isPrimaryKey":false,"label":"StartDay","name":"StartDay__c"},{"dataType":"Text","isPrimaryKey":false,"label":"IsPartner","name":"IsPartner__c"},{"dataType":"Text","isPrimaryKey":false,"label":"HasUserVerifiedEmail","name":"HasUserVerifiedEmail__c"},{"dataType":"Text","isPrimaryKey":false,"label":"EmployeeNumber","name":"EmployeeNumber__c"},{"dataType":"Email","isPrimaryKey":false,"label":"SenderEmail","name":"SenderEmail__c"},{"dataType":"Number","isPrimaryKey":false,"label":"Latitude","name":"Latitude__c"},{"dataType":"Text","isPrimaryKey":false,"label":"UserRole","name":"UserRoleId__c"},{"dataType":"Text","isPrimaryKey":false,"label":"DefaultCurrencyIsoCode","name":"DefaultCurrencyIsoCode__c"},{"dataType":"Phone","isPrimaryKey":false,"label":"MobilePhone","name":"MobilePhone__c"},{"dataType":"Text","isPrimaryKey":false,"label":"FirstName","name":"FirstName__c"},{"dataType":"Text","isPrimaryKey":false,"label":"Username","name":"Username__c"},{"dataType":"DateTime","isPrimaryKey":false,"label":"SystemModstamp","name":"SystemModstamp__c"},{"dataType":"Text","isPrimaryKey":false,"label":"IsProfilePhotoActive","name":"IsProfilePhotoActive__c"},{"dataType":"Text","isPrimaryKey":false,"label":"ReceivesAdminInfoEmails","name":"ReceivesAdminInfoEmails__c"},{"dataType":"Text","isPrimaryKey":false,"label":"CreatedBy","name":"CreatedById__c"},{"dataType":"Url","isPrimaryKey":false,"label":"BannerPhotoUrl","name":"BannerPhotoUrl__c"},{"dataType":"DateTime","isPrimaryKey":false,"label":"OfflineTrialExpirationDate","name":"OfflineTrialExpirationDate__c"},{"dataType":"Text","isPrimaryKey":false,"label":"PortalRole","name":"PortalRole__c"},{"dataType":"Number","isPrimaryKey":false,"label":"Longitude","name":"Longitude__c"},{"dataType":"Text","isPrimaryKey":false,"label":"IsPrmSuperUser","name":"IsPrmSuperUser__c"},{"dataType":"Text","isPrimaryKey":false,"label":"SfdcOrganizationId","name":"SfdcOrganizationId__c"},{"dataType":"Text","isPrimaryKey":false,"label":"ReceivesInfoEmails","name":"ReceivesInfoEmails__c"},{"dataType":"Text","isPrimaryKey":false,"label":"Division","name":"Division__c"},{"dataType":"Number","isPrimaryKey":false,"label":"JigsawImportLimitOverride","name":"JigsawImportLimitOverride__c"},{"dataType":"Text","isPrimaryKey":false,"label":"StayInTouchNote","name":"StayInTouchNote__c"},{"dataType":"Text","isPrimaryKey":false,"label":"DigestFrequency","name":"DigestFrequency__c"},{"dataType":"Text","isPrimaryKey":false,"label":"GeocodeAccuracy","name":"GeocodeAccuracy__c"},{"dataType":"DateTime","isPrimaryKey":false,"label":"OfflinePdaTrialExpirationDate","name":"OfflinePdaTrialExpirationDate__c"},{"dataType":"Text","isPrimaryKey":false,"label":"FederationIdentifier","name":"FederationIdentifier__c"},{"dataType":"Text","isPrimaryKey":false,"label":"Data Source Object","name":"DataSourceObject__c"},{"dataType":"Text","isPrimaryKey":false,"label":"CompanyName","name":"CompanyName__c"},{"dataType":"Text","isPrimaryKey":false,"label":"Contact","name":"ContactId__c"},{"dataType":"Text","isPrimaryKey":false,"label":"StayInTouchSubject","name":"StayInTouchSubject__c"},{"dataType":"DateTime","isPrimaryKey":false,"label":"SuAccessExpirationDate","name":"SuAccessExpirationDate__c"},{"dataType":"DateTime","isPrimaryKey":false,"label":"LastViewedDate","name":"LastViewedDate__c"},{"dataType":"Text","isPrimaryKey":false,"label":"Alias","name":"Alias__c"},{"dataType":"Text","isPrimaryKey":false,"label":"Department","name":"Department__c"},{"dataType":"Text","isPrimaryKey":false,"label":"State","name":"State__c"},{"dataType":"Text","isPrimaryKey":false,"label":"LastModifiedBy","name":"LastModifiedById__c"},{"dataType":"Text","isPrimaryKey":false,"label":"DelegatedApprover","name":"DelegatedApproverId__c"},{"dataType":"Text","isPrimaryKey":false,"label":"BadgeText","name":"BadgeText__c"},{"dataType":"DateTime","isPrimaryKey":false,"label":"LastLoginDate","name":"LastLoginDate__c"},{"dataType":"Text","isPrimaryKey":false,"label":"Data Source","name":"DataSource__c"},{"dataType":"Url","isPrimaryKey":false,"label":"SmallPhotoUrl","name":"SmallPhotoUrl__c"},{"dataType":"Text","isPrimaryKey":false,"label":"TimeZoneSidKey","name":"TimeZoneSidKey__c"},{"dataType":"DateTime","isPrimaryKey":false,"label":"LastModifiedDate","name":"LastModifiedDate__c"},{"dataType":"Text","isPrimaryKey":false,"label":"DefaultGroupNotificationFrequency","name":"DefaultGroupNotificationFrequency__c"},{"dataType":"Text","isPrimaryKey":false,"label":"LanguageLocaleKey","name":"LanguageLocaleKey__c"},{"dataType":"Text","isPrimaryKey":false,"label":"OutOfOfficeMessage","name":"OutOfOfficeMessage__c"},{"dataType":"Text","isPrimaryKey":false,"label":"Manager","name":"ManagerId__c"},{"dataType":"Text","isPrimaryKey":false,"label":"IsExtIndicatorVisible","name":"IsExtIndicatorVisible__c"},{"dataType":"Text","isPrimaryKey":true,"label":"Id","name":"Id__c"},{"dataType":"DateTime","isPrimaryKey":false,"label":"PasswordExpirationDate","name":"PasswordExpirationDate__c"},{"dataType":"Url","isPrimaryKey":false,"label":"SmallBannerPhotoUrl","name":"SmallBannerPhotoUrl__c"},{"dataType":"Text","isPrimaryKey":false,"label":"HasUserVerifiedPhone","name":"HasUserVerifiedPhone__c"},{"dataType":"Phone","isPrimaryKey":false,"label":"Phone","name":"Phone__c"},{"dataType":"Url","isPrimaryKey":false,"label":"FullPhotoUrl","name":"FullPhotoUrl__c"},{"dataType":"Phone","isPrimaryKey":false,"label":"Fax","name":"Fax__c"},{"dataType":"Text","isPrimaryKey":false,"label":"IsPortalEnabled","name":"IsPortalEnabled__c"},{"dataType":"Text","isPrimaryKey":false,"label":"Country","name":"Country__c"},{"dataType":"Text","isPrimaryKey":false,"label":"IsActive","name":"IsActive__c"},{"dataType":"Text","isPrimaryKey":false,"label":"StayInTouchSignature","name":"StayInTouchSignature__c"},{"dataType":"Url","isPrimaryKey":false,"label":"MediumPhotoUrl","name":"MediumPhotoUrl__c"},{"dataType":"Text","isPrimaryKey":false,"label":"Individual","name":"IndividualId__c"},{"dataType":"Text","isPrimaryKey":false,"label":"Account","name":"AccountId__c"},{"dataType":"Text","isPrimaryKey":false,"label":"Title","name":"Title__c"},{"dataType":"Text","isPrimaryKey":false,"label":"CallCenter","name":"CallCenterId__c"},{"dataType":"Text","isPrimaryKey":false,"label":"AboutMe","name":"AboutMe__c"},{"dataType":"Text","isPrimaryKey":false,"label":"Name","name":"Name__c"},{"dataType":"Email","isPrimaryKey":false,"label":"Email","name":"Email__c"},{"dataType":"Text","isPrimaryKey":false,"label":"PostalCode","name":"PostalCode__c"},{"dataType":"DateTime","isPrimaryKey":false,"label":"LastReferencedDate","name":"LastReferencedDate__c"},{"dataType":"Text","isPrimaryKey":false,"label":"CommunityNickname","name":"CommunityNickname__c"},{"dataType":"Text","isPrimaryKey":false,"label":"LocaleSidKey","name":"LocaleSidKey__c"},{"dataType":"DateTime","isPrimaryKey":false,"label":"CreatedDate","name":"CreatedDate__c"},{"dataType":"Url","isPrimaryKey":false,"label":"MediumBannerPhotoUrl","name":"MediumBannerPhotoUrl__c"},{"dataType":"Text","isPrimaryKey":false,"label":"CurrencyIsoCode","name":"CurrencyIsoCode__c"},{"dataType":"Phone","isPrimaryKey":false,"label":"Extension","name":"Extension__c"},{"dataType":"Text","isPrimaryKey":false,"label":"UserType","name":"UserType__c"},{"dataType":"Text","isPrimaryKey":false,"label":"SenderName","name":"SenderName__c"},{"dataType":"Text","isPrimaryKey":false,"label":"EmailEncodingKey","name":"EmailEncodingKey__c"},{"dataType":"Text","isPrimaryKey":false,"label":"IsPortalSelfRegistered","name":"IsPortalSelfRegistered__c"},{"dataType":"Text","isPrimaryKey":false,"label":"LastName","name":"LastName__c"},{"dataType":"Text","isPrimaryKey":false,"label":"ForecastEnabled","name":"ForecastEnabled__c"},{"dataType":"Text","isPrimaryKey":false,"label":"Profile","name":"ProfileId__c"},{"dataType":"Text","isPrimaryKey":false,"label":"Signature","name":"Signature__c"},{"dataType":"Text","isPrimaryKey":false,"label":"cdp_sys_SourceVersion","name":"cdp_sys_SourceVersion__c"},{"dataType":"Text","isPrimaryKey":false,"label":"KQ_AccountId","name":"KQ_AccountId__c"},{"dataType":"Text","isPrimaryKey":false,"label":"KQ_ContactId","name":"KQ_ContactId__c"},{"dataType":"Text","isPrimaryKey":false,"label":"KQ_ManagerId","name":"KQ_ManagerId__c"}],"dataSpaceInfo":[{"label":"default","name":"default"}],"fields":[{"dataType":"Text","isPrimaryKey":false,"label":"KQ_Id","name":"KQ_Id__c"},{"dataType":"Text","isPrimaryKey":false,"label":"Street","name":"Street__c"},{"dataType":"Text","isPrimaryKey":false,"label":"EndDay","name":"EndDay__c"},{"dataType":"Text","isPrimaryKey":false,"label":"City","name":"City__c"},{"dataType":"Text","isPrimaryKey":false,"label":"StartDay","name":"StartDay__c"},{"dataType":"Text","isPrimaryKey":false,"label":"IsPartner","name":"IsPartner__c"},{"dataType":"Text","isPrimaryKey":false,"label":"HasUserVerifiedEmail","name":"HasUserVerifiedEmail__c"},{"dataType":"Text","isPrimaryKey":false,"label":"EmployeeNumber","name":"EmployeeNumber__c"},{"dataType":"Email","isPrimaryKey":false,"label":"SenderEmail","name":"SenderEmail__c"},{"dataType":"Number","isPrimaryKey":false,"label":"Latitude","name":"Latitude__c"},{"dataType":"Text","isPrimaryKey":false,"label":"UserRole","name":"UserRoleId__c"},{"dataType":"Text","isPrimaryKey":false,"label":"DefaultCurrencyIsoCode","name":"DefaultCurrencyIsoCode__c"},{"dataType":"Phone","isPrimaryKey":false,"label":"MobilePhone","name":"MobilePhone__c"},{"dataType":"Text","isPrimaryKey":false,"label":"FirstName","name":"FirstName__c"},{"dataType":"Text","isPrimaryKey":false,"label":"Username","name":"Username__c"},{"dataType":"DateTime","isPrimaryKey":false,"label":"SystemModstamp","name":"SystemModstamp__c"},{"dataType":"Text","isPrimaryKey":false,"label":"IsProfilePhotoActive","name":"IsProfilePhotoActive__c"},{"dataType":"Text","isPrimaryKey":false,"label":"ReceivesAdminInfoEmails","name":"ReceivesAdminInfoEmails__c"},{"dataType":"Text","isPrimaryKey":false,"label":"CreatedBy","name":"CreatedById__c"},{"dataType":"Url","isPrimaryKey":false,"label":"BannerPhotoUrl","name":"BannerPhotoUrl__c"},{"dataType":"DateTime","isPrimaryKey":false,"label":"OfflineTrialExpirationDate","name":"OfflineTrialExpirationDate__c"},{"dataType":"Text","isPrimaryKey":false,"label":"PortalRole","name":"PortalRole__c"},{"dataType":"Number","isPrimaryKey":false,"label":"Longitude","name":"Longitude__c"},{"dataType":"Text","isPrimaryKey":false,"label":"IsPrmSuperUser","name":"IsPrmSuperUser__c"},{"dataType":"Text","isPrimaryKey":false,"label":"SfdcOrganizationId","name":"SfdcOrganizationId__c"},{"dataType":"Text","isPrimaryKey":false,"label":"ReceivesInfoEmails","name":"ReceivesInfoEmails__c"},{"dataType":"Text","isPrimaryKey":false,"label":"Division","name":"Division__c"},{"dataType":"Number","isPrimaryKey":false,"label":"JigsawImportLimitOverride","name":"JigsawImportLimitOverride__c"},{"dataType":"Text","isPrimaryKey":false,"label":"StayInTouchNote","name":"StayInTouchNote__c"},{"dataType":"Text","isPrimaryKey":false,"label":"DigestFrequency","name":"DigestFrequency__c"},{"dataType":"Text","isPrimaryKey":false,"label":"GeocodeAccuracy","name":"GeocodeAccuracy__c"},{"dataType":"DateTime","isPrimaryKey":false,"label":"OfflinePdaTrialExpirationDate","name":"OfflinePdaTrialExpirationDate__c"},{"dataType":"Text","isPrimaryKey":false,"label":"FederationIdentifier","name":"FederationIdentifier__c"},{"dataType":"Text","isPrimaryKey":false,"label":"Data Source Object","name":"DataSourceObject__c"},{"dataType":"Text","isPrimaryKey":false,"label":"CompanyName","name":"CompanyName__c"},{"dataType":"Text","isPrimaryKey":false,"label":"Contact","name":"ContactId__c"},{"dataType":"Text","isPrimaryKey":false,"label":"StayInTouchSubject","name":"StayInTouchSubject__c"},{"dataType":"DateTime","isPrimaryKey":false,"label":"SuAccessExpirationDate","name":"SuAccessExpirationDate__c"},{"dataType":"DateTime","isPrimaryKey":false,"label":"LastViewedDate","name":"LastViewedDate__c"},{"dataType":"Text","isPrimaryKey":false,"label":"Alias","name":"Alias__c"},{"dataType":"Text","isPrimaryKey":false,"label":"Department","name":"Department__c"},{"dataType":"Text","isPrimaryKey":false,"label":"State","name":"State__c"},{"dataType":"Text","isPrimaryKey":false,"label":"LastModifiedBy","name":"LastModifiedById__c"},{"dataType":"Text","isPrimaryKey":false,"label":"DelegatedApprover","name":"DelegatedApproverId__c"},{"dataType":"Text","isPrimaryKey":false,"label":"BadgeText","name":"BadgeText__c"},{"dataType":"DateTime","isPrimaryKey":false,"label":"LastLoginDate","name":"LastLoginDate__c"},{"dataType":"Text","isPrimaryKey":false,"label":"Data Source","name":"DataSource__c"},{"dataType":"Url","isPrimaryKey":false,"label":"SmallPhotoUrl","name":"SmallPhotoUrl__c"},{"dataType":"Text","isPrimaryKey":false,"label":"TimeZoneSidKey","name":"TimeZoneSidKey__c"},{"dataType":"DateTime","isPrimaryKey":false,"label":"LastModifiedDate","name":"LastModifiedDate__c"},{"dataType":"Text","isPrimaryKey":false,"label":"DefaultGroupNotificationFrequency","name":"DefaultGroupNotificationFrequency__c"},{"dataType":"Text","isPrimaryKey":false,"label":"LanguageLocaleKey","name":"LanguageLocaleKey__c"},{"dataType":"Text","isPrimaryKey":false,"label":"OutOfOfficeMessage","name":"OutOfOfficeMessage__c"},{"dataType":"Text","isPrimaryKey":false,"label":"Manager","name":"ManagerId__c"},{"dataType":"Text","isPrimaryKey":false,"label":"IsExtIndicatorVisible","name":"IsExtIndicatorVisible__c"},{"dataType":"Text","isPrimaryKey":true,"label":"Id","name":"Id__c"},{"dataType":"DateTime","isPrimaryKey":false,"label":"PasswordExpirationDate","name":"PasswordExpirationDate__c"},{"dataType":"Url","isPrimaryKey":false,"label":"SmallBannerPhotoUrl","name":"SmallBannerPhotoUrl__c"},{"dataType":"Text","isPrimaryKey":false,"label":"HasUserVerifiedPhone","name":"HasUserVerifiedPhone__c"},{"dataType":"Phone","isPrimaryKey":false,"label":"Phone","name":"Phone__c"},{"dataType":"Url","isPrimaryKey":false,"label":"FullPhotoUrl","name":"FullPhotoUrl__c"},{"dataType":"Phone","isPrimaryKey":false,"label":"Fax","name":"Fax__c"},{"dataType":"Text","isPrimaryKey":false,"label":"IsPortalEnabled","name":"IsPortalEnabled__c"},{"dataType":"Text","isPrimaryKey":false,"label":"Country","name":"Country__c"},{"dataType":"Text","isPrimaryKey":false,"label":"IsActive","name":"IsActive__c"},{"dataType":"Text","isPrimaryKey":false,"label":"StayInTouchSignature","name":"StayInTouchSignature__c"},{"dataType":"Url","isPrimaryKey":false,"label":"MediumPhotoUrl","name":"MediumPhotoUrl__c"},{"dataType":"Text","isPrimaryKey":false,"label":"Individual","name":"IndividualId__c"},{"dataType":"Text","isPrimaryKey":false,"label":"Account","name":"AccountId__c"},{"dataType":"Text","isPrimaryKey":false,"label":"Title","name":"Title__c"},{"dataType":"Text","isPrimaryKey":false,"label":"CallCenter","name":"CallCenterId__c"},{"dataType":"Text","isPrimaryKey":false,"label":"AboutMe","name":"AboutMe__c"},{"dataType":"Text","isPrimaryKey":false,"label":"Name","name":"Name__c"},{"dataType":"Email","isPrimaryKey":false,"label":"Email","name":"Email__c"},{"dataType":"Text","isPrimaryKey":false,"label":"PostalCode","name":"PostalCode__c"},{"dataType":"DateTime","isPrimaryKey":false,"label":"LastReferencedDate","name":"LastReferencedDate__c"},{"dataType":"Text","isPrimaryKey":false,"label":"CommunityNickname","name":"CommunityNickname__c"},{"dataType":"Text","isPrimaryKey":false,"label":"LocaleSidKey","name":"LocaleSidKey__c"},{"dataType":"DateTime","isPrimaryKey":false,"label":"CreatedDate","name":"CreatedDate__c"},{"dataType":"Url","isPrimaryKey":false,"label":"MediumBannerPhotoUrl","name":"MediumBannerPhotoUrl__c"},{"dataType":"Text","isPrimaryKey":false,"label":"CurrencyIsoCode","name":"CurrencyIsoCode__c"},{"dataType":"Phone","isPrimaryKey":false,"label":"Extension","name":"Extension__c"},{"dataType":"Text","isPrimaryKey":false,"label":"UserType","name":"UserType__c"},{"dataType":"Text","isPrimaryKey":false,"label":"SenderName","name":"SenderName__c"},{"dataType":"Text","isPrimaryKey":false,"label":"EmailEncodingKey","name":"EmailEncodingKey__c"},{"dataType":"Text","isPrimaryKey":false,"label":"IsPortalSelfRegistered","name":"IsPortalSelfRegistered__c"},{"dataType":"Text","isPrimaryKey":false,"label":"LastName","name":"LastName__c"},{"dataType":"Text","isPrimaryKey":false,"label":"ForecastEnabled","name":"ForecastEnabled__c"},{"dataType":"Text","isPrimaryKey":false,"label":"Profile","name":"ProfileId__c"},{"dataType":"Text","isPrimaryKey":false,"label":"Signature","name":"Signature__c"},{"dataType":"Text","isPrimaryKey":false,"label":"cdp_sys_SourceVersion","name":"cdp_sys_SourceVersion__c"},{"dataType":"Text","isPrimaryKey":false,"label":"KQ_AccountId","name":"KQ_AccountId__c"},{"dataType":"Text","isPrimaryKey":false,"label":"KQ_ContactId","name":"KQ_ContactId__c"},{"dataType":"Text","isPrimaryKey":false,"label":"KQ_ManagerId","name":"KQ_ManagerId__c"}],"id":"1dlKZ000000XwjDYAS","label":"User_Home","lastRefreshedDate":"2025-10-27T17:32:05.000Z","name":"User_Home__dll","namespace":"","recordModifiedFieldName":"SystemModstamp__c","status":"ACTIVE","totalRecords":108}],"nextPageUrl":"/services/data/v66.0/ssot/data-lake-objects?limit=5&offset=5&orderBy=label","totalSize":42},"error":[]}],"context":{"mode":"PROD","app":"one:one","pathPrefix":"","fwuid":"TXFWNVprQUZzQnEtNXVXYTFLQ2ppdzJEa1N5enhOU3R5QWl2VzNveFZTbGcxMy4tMjE0NzQ4MzY0OC4xMzEwNzIwMA","mlr":1,"uad":1,"coos":1,"lwrld":1,"loaded":{"APPLICATION@markup://one:one":"4033_7QRfEFayQkjbgtisLa86kA"},"globalValueProviders":[{"type":"$Global","values":{"eswConfigDeveloperName":{"writable":true,"defaultValue":""},"isVoiceOver":{"writable":true,"defaultValue":false},"setupAppContextId":{"writable":true,"defaultValue":""},"density":{"writable":true,"defaultValue":""},"srcdoc":{"writable":false,"defaultValue":false},"appContextId":{"writable":true,"defaultValue":""},"dynamicTypeSize":{"writable":true,"defaultValue":""}}}],"enableAccessChecks":true,"dns":"c","ls":1,"lairn":[],"laerc":[],"lav":"66","ln":1,"lgef":["com.salesforce.locker.enableImmediateGlobalObjectPatching","com.salesforce.locker.enableTrustedTypesScript","com.salesforce.locker.changesSince.258","com.salesforce.locker.changesSince.256","com.salesforce.locker.enabledChangesSince.256","com.salesforce.locker.temporaryGate","com.salesforce.locker.enableSfdcLiveObject"],"ch":"https://b.static.lightning.force.com/na243","cpf":1,"mna":{"lightning":"interop"},"arse":1,"acaf":1,"icld":1,"ccv":"57366045","services":["markup://force:initServiceSfdc","markup://lightning:configProvider","markup://force:salesforceScopedModuleResolver","markup://force:ldsEngineCreator","markup://instrumentation:locatorService","markup://force:lwcReportingService","markup://force:lwcScopedModuleResolver"]},"perfSummary":{"version":"core","request":1410,"actions":{"1;a":{"total":1398,"db":450}},"actionsTotal":1398,"overhead":0}}