{"currentPageUrl":"/services/data/v66.0/ssot/data-lake-objects?limit=1&offset=0&orderBy=label","dataLakeObjects":[{"capabilities":{},"category":"Other","createdDate":"2026-03-30T21:53:52.000Z","dataLakeFieldInfoRepresentation":[{"dataType":"Text","isPrimaryKey":false,"label":"KQ_se_id","name":"KQ_se_id__c"},{"dataType":"Boolean","isPrimaryKey":false,"label":"travel_flag","name":"travel_flag__c"},{"dataType":"Number","isPrimaryKey":false,"label":"technical_touchpoints","name":"technical_touchpoints__c"},{"dataType":"Number","isPrimaryKey":false,"label":"is_billable_equivalent","name":"is_billable_equivalent__c"},{"dataType":"Text","isPrimaryKey":false,"label":"Data Source Object","name":"DataSourceObject__c"},{"dataType":"Boolean","isPrimaryKey":false,"label":"after_hours_flag","name":"after_hours_flag__c"},{"dataType":"Text","isPrimaryKey":false,"label":"manager_id","name":"manager_id__c"},{"dataType":"Text","isPrimaryKey":true,"label":"se_id","name":"se_id__c"},{"dataType":"Text","isPrimaryKey":false,"label":"support_ticket_id","name":"support_ticket_id__c"},{"dataType":"Boolean","isPrimaryKey":false,"label":"manager_feedback_flag","name":"manager_feedback_flag__c"},{"dataType":"Boolean","isPrimaryKey":false,"label":"is_quarter_end_week","name":"is_quarter_end_week__c"},{"dataType":"Text","isPrimaryKey":false,"label":"activity_id","name":"activity_id__c"},{"dataType":"Text","isPrimaryKey":false,"label":"customer_satisfaction_sentiment","name":"customer_satisfaction_sentiment__c"},{"dataType":"Text","isPrimaryKey":false,"label":"opportunity_id","name":"opportunity_id__c"},{"dataType":"Text","isPrimaryKey":false,"label":"activity_subject","name":"activity_subject__c"},{"dataType":"Text","isPrimaryKey":false,"label":"logging_category","name":"logging_category__c"},{"dataType":"Text","isPrimaryKey":false,"label":"opportunity_type","name":"opportunity_type__c"},{"dataType":"Number","isPrimaryKey":false,"label":"se_reported_influence_pct","name":"se_reported_influence_pct__c"},{"dataType":"Number","isPrimaryKey":false,"label":"deal_value_usd","name":"deal_value_usd__c"},{"dataType":"Number","isPrimaryKey":false,"label":"prep_followup_hours","name":"prep_followup_hours__c"},{"dataType":"Text","isPrimaryKey":false,"label":"account_id","name":"account_id__c"},{"dataType":"Text","isPrimaryKey":false,"label":"region","name":"region__c"},{"dataType":"Text","isPrimaryKey":false,"label":"account_maturity","name":"account_maturity__c"},{"dataType":"Boolean","isPrimaryKey":false,"label":"notes_flagged_for_followup","name":"notes_flagged_for_followup__c"},{"dataType":"Text","isPrimaryKey":false,"label":"account_tier","name":"account_tier__c"},{"dataType":"Text","isPrimaryKey":false,"label":"se_name_alias","name":"se_name_alias__c"},{"dataType":"Text","isPrimaryKey":false,"label":"role_archetype","name":"role_archetype__c"},{"dataType":"Text","isPrimaryKey":false,"label":"Internal Organization","name":"InternalOrganization__c"},{"dataType":"Number","isPrimaryKey":false,"label":"value_influenced_per_hour_usd","name":"value_influenced_per_hour_usd__c"},{"dataType":"Text","isPrimaryKey":false,"label":"industry","name":"industry__c"},{"dataType":"Number","isPrimaryKey":false,"label":"conversion_touchpoint_ratio","name":"conversion_touchpoint_ratio__c"},{"dataType":"Text","isPrimaryKey":false,"label":"account_name","name":"account_name__c"},{"dataType":"Number","isPrimaryKey":false,"label":"se_tenure_months","name":"se_tenure_months__c"},{"dataType":"Text","isPrimaryKey":false,"label":"opportunity_name","name":"opportunity_name__c"},{"dataType":"Text","isPrimaryKey":false,"label":"team","name":"team__c"},{"dataType":"Text","isPrimaryKey":false,"label":"Data Source","name":"DataSource__c"},{"dataType":"Number","isPrimaryKey":false,"label":"followup_action_count","name":"followup_action_count__c"},{"dataType":"Text","isPrimaryKey":false,"label":"outcome_flag","name":"outcome_flag__c"},{"dataType":"Boolean","isPrimaryKey":false,"label":"is_internal_only","name":"is_internal_only__c"},{"dataType":"Number","isPrimaryKey":false,"label":"monthly_se_target_hours","name":"monthly_se_target_hours__c"},{"dataType":"Text","isPrimaryKey":false,"label":"se_level","name":"se_level__c"},{"dataType":"Number","isPrimaryKey":false,"label":"hours_logged","name":"hours_logged__c"},{"dataType":"Text","isPrimaryKey":false,"label":"account_support_intensity","name":"account_support_intensity__c"},{"dataType":"Text","isPrimaryKey":false,"label":"activity_type","name":"activity_type__c"},{"dataType":"Number","isPrimaryKey":false,"label":"week_of_year","name":"week_of_year__c"},{"dataType":"DateTime","isPrimaryKey":false,"label":"logged_timestamp","name":"logged_timestamp__c"},{"dataType":"Number","isPrimaryKey":false,"label":"logging_lag_days","name":"logging_lag_days__c"},{"dataType":"Date","isPrimaryKey":false,"label":"activity_date","name":"activity_date__c"},{"dataType":"Text","isPrimaryKey":false,"label":"opp_stage","name":"opp_stage__c"},{"dataType":"Text","isPrimaryKey":false,"label":"cdp_sys_SourceVersion","name":"cdp_sys_SourceVersion__c"}],"dataSpaceInfo":[{"label":"default","name":"default"}],"fields":[{"dataType":"Text","isPrimaryKey":false,"label":"KQ_se_id","name":"KQ_se_id__c"},{"dataType":"Boolean","isPrimaryKey":false,"label":"travel_flag","name":"travel_flag__c"},{"dataType":"Number","isPrimaryKey":false,"label":"technical_touchpoints","name":"technical_touchpoints__c"},{"dataType":"Number","isPrimaryKey":false,"label":"is_billable_equivalent","name":"is_billable_equivalent__c"},{"dataType":"Text","isPrimaryKey":false,"label":"Data Source Object","name":"DataSourceObject__c"},{"dataType":"Boolean","isPrimaryKey":false,"label":"after_hours_flag","name":"after_hours_flag__c"},{"dataType":"Text","isPrimaryKey":false,"label":"manager_id","name":"manager_id__c"},{"dataType":"Text","isPrimaryKey":true,"label":"se_id","name":"se_id__c"},{"dataType":"Text","isPrimaryKey":false,"label":"support_ticket_id","name":"support_ticket_id__c"},{"dataType":"Boolean","isPrimaryKey":false,"label":"manager_feedback_flag","name":"manager_feedback_flag__c"},{"dataType":"Boolean","isPrimaryKey":false,"label":"is_quarter_end_week","name":"is_quarter_end_week__c"},{"dataType":"Text","isPrimaryKey":false,"label":"activity_id","name":"activity_id__c"},{"dataType":"Text","isPrimaryKey":false,"label":"customer_satisfaction_sentiment","name":"customer_satisfaction_sentiment__c"},{"dataType":"Text","isPrimaryKey":false,"label":"opportunity_id","name":"opportunity_id__c"},{"dataType":"Text","isPrimaryKey":false,"label":"activity_subject","name":"activity_subject__c"},{"dataType":"Text","isPrimaryKey":false,"label":"logging_category","name":"logging_category__c"},{"dataType":"Text","isPrimaryKey":false,"label":"opportunity_type","name":"opportunity_type__c"},{"dataType":"Number","isPrimaryKey":false,"label":"se_reported_influence_pct","name":"se_reported_influence_pct__c"},{"dataType":"Number","isPrimaryKey":false,"label":"deal_value_usd","name":"deal_value_usd__c"},{"dataType":"Number","isPrimaryKey":false,"label":"prep_followup_hours","name":"prep_followup_hours__c"},{"dataType":"Text","isPrimaryKey":false,"label":"account_id","name":"account_id__c"},{"dataType":"Text","isPrimaryKey":false,"label":"region","name":"region__c"},{"dataType":"Text","isPrimaryKey":false,"label":"account_maturity","name":"account_maturity__c"},{"dataType":"Boolean","isPrimaryKey":false,"label":"notes_flagged_for_followup","name":"notes_flagged_for_followup__c"},{"dataType":"Text","isPrimaryKey":false,"label":"account_tier","name":"account_tier__c"},{"dataType":"Text","isPrimaryKey":false,"label":"se_name_alias","name":"se_name_alias__c"},{"dataType":"Text","isPrimaryKey":false,"label":"role_archetype","name":"role_archetype__c"},{"dataType":"Text","isPrimaryKey":false,"label":"Internal Organization","name":"InternalOrganization__c"},{"dataType":"Number","isPrimaryKey":false,"label":"value_influenced_per_hour_usd","name":"value_influenced_per_hour_usd__c"},{"dataType":"Text","isPrimaryKey":false,"label":"industry","name":"industry__c"},{"dataType":"Number","isPrimaryKey":false,"label":"conversion_touchpoint_ratio","name":"conversion_touchpoint_ratio__c"},{"dataType":"Text","isPrimaryKey":false,"label":"account_name","name":"account_name__c"},{"dataType":"Number","isPrimaryKey":false,"label":"se_tenure_months","name":"se_tenure_months__c"},{"dataType":"Text","isPrimaryKey":false,"label":"opportunity_name","name":"opportunity_name__c"},{"dataType":"Text","isPrimaryKey":false,"label":"team","name":"team__c"},{"dataType":"Text","isPrimaryKey":false,"label":"Data Source","name":"DataSource__c"},{"dataType":"Number","isPrimaryKey":false,"label":"followup_action_count","name":"followup_action_count__c"},{"dataType":"Text","isPrimaryKey":false,"label":"outcome_flag","name":"outcome_flag__c"},{"dataType":"Boolean","isPrimaryKey":false,"label":"is_internal_only","name":"is_internal_only__c"},{"dataType":"Number","isPrimaryKey":false,"label":"monthly_se_target_hours","name":"monthly_se_target_hours__c"},{"dataType":"Text","isPrimaryKey":false,"label":"se_level","name":"se_level__c"},{"dataType":"Number","isPrimaryKey":false,"label":"hours_logged","name":"hours_logged__c"},{"dataType":"Text","isPrimaryKey":false,"label":"account_support_intensity","name":"account_support_intensity__c"},{"dataType":"Text","isPrimaryKey":false,"label":"activity_type","name":"activity_type__c"},{"dataType":"Number","isPrimaryKey":false,"label":"week_of_year","name":"week_of_year__c"},{"dataType":"DateTime","isPrimaryKey":false,"label":"logged_timestamp","name":"logged_timestamp__c"},{"dataType":"Number","isPrimaryKey":false,"label":"logging_lag_days","name":"logging_lag_days__c"},{"dataType":"Date","isPrimaryKey":false,"label":"activity_date","name":"activity_date__c"},{"dataType":"Text","isPrimaryKey":false,"label":"opp_stage","name":"opp_stage__c"},{"dataType":"Text","isPrimaryKey":false,"label":"cdp_sys_SourceVersion","name":"cdp_sys_SourceVersion__c"}],"id":"1dlKZ000000Y5SfYAK","label":"se_activity_flat.csv (1).csv","lastRefreshedDate":"2026-03-30T21:54:05.000Z","name":"se_activity_flatcsv_1csv__dll","namespace":"","status":"ACTIVE","totalRecords":255120}],"nextPageUrl":"/services/data/v66.0/ssot/data-lake-objects?limit=1&offset=1&orderBy=label","totalSize":42}